{
	"ImportPath": "transfer.sh/transfersh-server",
	"GoVersion": "go1.2.1",
	"Deps": [
		{
			"ImportPath": "github.com/PuerkitoBio/ghost",
			"Rev": "a0146f2f931611b8bfe40f07018c97a7c881c76a"
		},
		{
			"ImportPath": "github.com/dutchcoders/go-clamd",
			"Rev": "1bb7549e07d41e88138a32942d193a9d76eea16a"
		},
		{
			"ImportPath": "github.com/dutchcoders/go-virustotal",
			"Rev": "24cc8e6fa329f020c70a3b32330b5743f1ba7971"
		},
		{
			"ImportPath": "github.com/garyburd/redigo/internal",
			"Rev": "46806c72355edd62250ac37a8b1a565618b39e22"
		},
		{
			"ImportPath": "github.com/garyburd/redigo/redis",
			"Rev": "46806c72355edd62250ac37a8b1a565618b39e22"
		},
		{
			"ImportPath": "github.com/goamz/goamz/aws",
			"Rev": "53a0c224cce889e9dc606396f60bd111e40d6440"
		},
		{
			"ImportPath": "github.com/goamz/goamz/s3",
			"Rev": "53a0c224cce889e9dc606396f60bd111e40d6440"
		},
		{
			"ImportPath": "github.com/golang/gddo/httputil/header",
			"Rev": "8e99ca76afdaa03024025589accb9289161d03a6"
		},
		{
			"ImportPath": "github.com/gorilla/context",
			"Rev": "1c83b3eabd45b6d76072b66b746c20815fb2872d"
		},
		{
			"ImportPath": "github.com/gorilla/mux",
			"Rev": "49c024275504f0341e5a9971eb7ba7fa3dc7af40"
		},
		{
			"ImportPath": "github.com/gorilla/securecookie",
			"Rev": "e95799a481bbcc3d01c2ad5178524cb8bec9f370"
		},
		{
			"ImportPath": "github.com/kennygrant/sanitize",
			"Rev": "bf9c39a678d8e26aeee60d5fe733cad47a7a6871"
		},
		{
			"ImportPath": "github.com/nu7hatch/gouuid",
			"Rev": "179d4d0c4d8d407a32af483c2354df1d2c91e6c3"
		},
		{
			"ImportPath": "github.com/russross/blackfriday",
			"Comment": "v1.3",
			"Rev": "8cec3a854e68dba10faabbe31c089abf4a3e57a6"
		},
		{
			"ImportPath": "github.com/shurcooL/sanitized_anchor_name",
			"Rev": "244f5ac324cb97e1987ef901a0081a77bfd8e845"
		},
		{
			"ImportPath": "github.com/vaughan0/go-ini",
			"Rev": "a98ad7ee00ec53921f08832bc06ecf7fd600e6a1"
		},
		{
			"ImportPath": "golang.org/x/net/html",
			"Rev": "7c302550d18cede73764b1d19a661d70e29b725d"
		}
	]
}
